Cartographie
…
Conclusion

On peut bien entendu aller plus loin et plus en détails dans l’étude, en croisant avec d’autres sources de données, en travaillant sur les libellés précis des commerces (plus de 220), et en ajoutant des fonds de cartes reprenant les rues, stations de métro, etc.

commerce%>%group_by(LIBELLE_AC)%>%count(sort=T)

Simple feature collection with 221 features and 2 fields
Geometry type: MULTIPOINT
Dimension:     XY
Bounding box:  xmin: 643571 ymin: 6857578 xmax: 660318.4 ymax: 6866978
Projected CRS: RGF93 v1 / Lambert-93
# A tibble: 221 × 3
   LIBELLE_AC                                       n                   geometry
 * <chr>                                        <int>           <MULTIPOINT [m]>
 1 Locaux Vacants                                7247 ((645171.8 6860109), (645…
 2 Bureau en boutique                            6904 ((645217.8 6860179), (645…
 3 Brasserie - Restauration continue sans tabac  2739 ((645328 6860566), (64536…
 4 Restauration rapide assise                    2658 ((645395.3 6860318), (645…
 5 Coiffure                                      2654 ((645475.4 6859947), (645…
 6 Prêt-à-porter Femme                           2003 ((645560.1 6859974), (645…
 7 Restaurant traditionnel français              2003 ((644254.8 6862813), (644…
 8 Restaurant asiatique                          1978 ((645520.4 6860144), (645…
 9 Agence immobilière                            1944 ((645342.5 6860547), (645…
10 Locaux en travaux                             1517 ((645547.7 6860660), (645…
# ℹ 211 more rows
